…
In a last-ditch effort, we checked if some simple `str_detect`s could
fix the problem; unfortunately, it seems like even this very wide net
only snags a couple hundred punts, \~10% of the mystery.

``` r
punts %>% 
  filter(punt_out_of_bounds==0 & return_yards==0) %>%
  filter(desc %>% str_detect("bounds")) %>%
  mutate(gotcha = desc %>% str_extract("bounds")) %>%
  select(punt_out_of_bounds, gotcha)
```

    ## # A tibble: 206 x 2
    ##    punt_out_of_bounds gotcha
    ##                 <dbl> <chr> 
    ##  1                  0 bounds
    ##  2                  0 bounds
    ##  3                  0 bounds
    ##  4                  0 bounds
    ##  5                  0 bounds
    ##  6                  0 bounds
    ##  7                  0 bounds
    ##  8                  0 bounds
    ##  9                  0 bounds
    ## 10                  0 bounds
    ## # … with 196 more rows

``` r
punts %>% 
  filter(punt_downed==0) %>%
  filter(desc %>% str_detect("owned")) %>%
  mutate(gotcha = desc %>% str_extract("owned")) %>%
  select(punt_downed, gotcha)
```

    ## # A tibble: 45 x 2
    ##    punt_downed gotcha
    ##          <dbl> <chr> 
    ##  1           0 owned 
    ##  2           0 owned 
    ##  3           0 owned 
    ##  4           0 owned 
    ##  5           0 owned 
    ##  6           0 owned 
    ##  7           0 owned 
    ##  8           0 owned 
    ##  9           0 owned 
    ## 10           0 owned 
    ## # … with 35 more rows
…
